Used Car Resale Values
…
## # A tibble: 39 x 3
##    make          meanval   std
##    <chr>           <dbl> <dbl>
##  1 Ram            12540. 3163.
##  2 Jaguar         11967. 3276.
##  3 Honda          11250. 3126.
##  4 Mercedes-Benz  11232. 3014.
##  5 Land Rover     11085. 2740.
##  6 Mazda          11080. 3402.
##  7 Hyundai        11062. 2600.
##  8 Hummer         11003. 1775.
##  9 Nissan         10966. 2900.
## 10 Volkswagen     10904. 2845.
## # ... with 29 more rows
…
